Fecha,Valor real,Valor predicho
2023-01-01,1.4908722109533468,1.3963653
2023-01-02,1.556592292089249,1.4364425
2023-01-03,1.5460446247464503,1.4820348
2023-01-04,1.565517241379311,1.4915477
2023-01-05,1.7269776876267748,1.4983588
2023-01-06,1.9127789046653145,1.6129895
2023-01-07,1.9127789046653145,1.7799264
2023-01-08,1.898174442190669,1.8717223
2023-01-09,1.817038539553753,1.9157258
2023-01-10,1.7951318458417855,1.8983527
2023-01-11,1.7935091277890454,1.8473846
2023-01-12,1.9306288032454368,1.8126708
2023-01-13,1.9655172413793096,1.8709623
2023-01-14,1.9655172413793096,1.9273969
2023-01-15,1.9655172413793096,1.9600173
2023-01-16,2.0304259634888435,1.9773704
2023-01-17,2.0864097363083154,2.0097716
2023-01-18,2.1448275862068957,2.0593703
2023-01-19,2.0417849898580105,2.1192276
2023-01-20,2.0336713995943203,2.1099226
2023-01-21,2.0336713995943203,2.0831444
2023-01-22,2.0336713995943203,2.0618088
2023-01-23,1.9225152129817449,2.0452645
2023-01-24,1.97606490872211,1.9924909
2023-01-25,1.9622718052738328,2.0013297
2023-01-26,1.868965517241378,1.9775058
2023-01-27,1.4356997971602432,1.9234248
2023-01-28,1.4356997971602432,1.6566669
2023-01-29,1.4356997971602432,1.5207502
2023-01-30,1.4624746450304258,1.4607621
2023-01-31,1.5070993914807307,1.4539882
2023-02-01,1.5533468559837722,1.4832584
2023-02-02,1.4624746450304258,1.5318891
2023-02-03,1.4348884381338731,1.5061132
2023-02-04,1.4348884381338731,1.4810191
2023-02-05,1.4348884381338731,1.4672128
2023-02-06,1.3464503042596352,1.4600545
2023-02-07,1.3634888438133874,1.4161083
2023-02-08,1.202839756592292,1.4129831
2023-02-09,1.2661257606490857,1.3231088
2023-02-10,1.2531440162271803,1.3075334
2023-02-11,1.2531440162271803,1.3141652
2023-02-12,1.312778904665313,1.3140775
2023-02-13,1.3350912778904664,1.3331653
2023-02-14,1.2701825557809325,1.3562919
2023-02-15,1.1955375253549683,1.3526775
2023-02-16,1.0778904665314393,1.3018028
2023-02-17,1.0,1.2073451
2023-02-18,1.0,1.1129037
2023-02-19,1.0,1.0691491
2023-02-20,1.1273833671399593,1.0521661
2023-02-21,1.223123732251521,1.1024505
2023-02-22,1.2937119675456383,1.1857425
2023-02-23,1.2539553752535486,1.2519666
2023-02-24,1.3683569979716008,1.2715331
2023-02-25,1.3683569979716008,1.3422376
2023-02-26,1.3683569979716008,1.3797971
2023-02-27,1.3683569979716008,1.3984386
2023-02-28,1.0876267748478696,1.3990899
2023-03-01,1.0762677484787009,1.2645007
2023-03-02,1.206085192697767,1.1777354
2023-03-03,1.4705882352941178,1.197239
2023-03-04,1.4705882352941178,1.362136
2023-03-05,1.4705882352941178,1.4552585
2023-03-06,1.870588235294118,1.5020868
2023-03-07,1.825152129817445,1.7354537
2023-03-08,2.1269776876267734,1.8220197
2023-03-09,2.0588235294117645,1.9712344
2023-03-10,2.468559837728195,2.016743
2023-03-11,2.468559837728195,2.2261603
2023-03-12,2.468559837728195,2.3277094
2023-03-13,2.545638945233266,2.3695147
2023-03-14,2.2097363083164296,2.425316
2023-03-15,2.2770791075050703,2.2954295
2023-03-16,2.6559837728194733,2.2391675
2023-03-17,2.56186612576065,2.3826392
2023-03-18,2.56186612576065,2.4449599
2023-03-19,2.56186612576065,2.474747
2023-03-20,2.31683569979716,2.48724
2023-03-21,2.333062880324542,2.3764346
2023-03-22,2.2795131845841787,2.3221571
2023-03-23,2.3882352941176475,2.2612107
2023-03-24,2.296551724137931,2.2952511
2023-03-25,2.296551724137931,2.2806733
2023-03-26,2.296551724137931,2.2666333
2023-03-27,2.4174442190669385,2.2561543
2023-03-28,2.728194726166331,2.3076718
2023-03-29,2.717647058823532,2.5002825
2023-03-30,2.6446247464503063,2.589554
2023-03-31,2.6446247464503063,2.5935385
2023-04-01,2.6446247464503063,2.5753615
2023-04-02,2.6446247464503063,2.5510352
2023-04-03,2.459634888438133,2.52862
2023-04-04,2.5870182555780925,2.4287608
2023-04-05,2.6365111561866126,2.4500391
2023-04-06,2.8831643002028375,2.4847357
2023-04-07,2.565922920892495,2.628092
2023-04-08,2.565922920892495,2.538935
2023-04-09,2.565922920892495,2.4811022
2023-04-10,2.501014198782963,2.4461615
2023-04-11,2.631643002028399,2.4009516
2023-04-12,2.5318458417849907,2.4525893
2023-04-13,2.6275862068965505,2.4295046
2023-04-14,2.3963488843813376,2.4445708
2023-04-15,2.3963488843813376,2.3379939
2023-04-16,2.3963488843813376,2.2789624
2023-04-17,2.471805273833672,2.2498095
2023-04-18,2.508316430020285,2.286895
2023-04-19,2.4417849898580126,2.3103974
2023-04-20,2.539959432048681,2.3041737
2023-04-21,2.540770791075049,2.337664
2023-04-22,2.540770791075049,2.3529837
2023-04-23,2.540770791075049,2.3629286
2023-04-24,2.484787018255579,2.3694193
2023-04-25,2.7371196754563893,2.3481562
2023-04-26,2.8482758620689648,2.4659503
2023-04-27,2.9999999999999982,2.578604
2023-04-28,2.749290060851928,2.716696
2023-04-29,2.749290060851928,2.6635344
2023-04-30,2.749290060851928,2.6233962
2023-05-01,2.817444219066937,2.5962336
2023-05-02,2.8961460446247482,2.596125
2023-05-03,2.849087221095333,2.6463683
2023-05-04,2.714401622718052,2.6528418
2023-05-05,2.70872210953347,2.5680697
2023-05-06,2.70872210953347,2.5259993
2023-05-07,2.70872210953347,2.519684
2023-05-08,2.694117647058823,2.5275233
2023-05-09,2.4539553752535515,2.5408595
2023-05-10,2.3914807302231242,2.429207
2023-05-11,2.195131845841784,2.3327544
2023-05-12,2.3752535496957403,2.190883
2023-05-13,2.3752535496957403,2.2081168
2023-05-14,2.3752535496957403,2.2197907
2023-05-15,2.343610547667341,2.2263548
2023-05-16,2.3241379310344836,2.20988
2023-05-17,2.2462474645030426,2.1849244
2023-05-18,2.0864097363083154,2.1354582
2023-05-19,2.2486815415821493,2.0229418
2023-05-20,2.2486815415821493,2.053118
2023-05-21,2.235699797160244,2.0806868
2023-05-22,2.2215010141987825,2.1016114
2023-05-23,2.362271805273833,2.1024163
2023-05-24,2.402839756592291,2.158398
2023-05-25,2.5115618661257617,2.229787
2023-05-26,2.301419878296146,2.3260615
2023-05-27,2.301419878296146,2.263243
2023-05-28,2.301419878296146,2.2226603
2023-05-29,2.3395537525354957,2.1992571
2023-05-30,2.397971602434078,2.202944
2023-05-31,2.2105476673427997,2.2325613
2023-06-01,2.374442190669372,2.1716006
2023-06-02,2.3630831643002015,2.248648
2023-06-03,2.3630831643002015,2.2617705
2023-06-04,2.3630831643002015,2.2559702
2023-06-05,2.302231237322516,2.243662
2023-06-06,2.2121703853955363,2.187672
2023-06-07,2.2957403651115627,2.1054423
2023-06-08,2.2381338742393506,2.1187737
2023-06-09,2.2413793103448274,2.1118205
2023-06-10,2.2413793103448274,2.1175845
2023-06-11,2.300202839756592,2.1242516
2023-06-12,2.256389452332657,2.1606123
2023-06-13,2.0523326572008127,2.154795
2023-06-14,2.0296146044624734,2.0204785
2023-06-15,1.8584178498985793,1.9334022
2023-06-16,1.9070993914807293,1.8281537
2023-06-17,1.9070993914807293,1.8087388
2023-06-18,1.9070993914807293,1.8193752
2023-06-19,1.9403651115618654,1.8397771
2023-06-20,1.8592292089249476,1.8879701
2023-06-21,1.845436105476674,1.8771697
2023-06-22,1.8819472616632869,1.8454648
2023-06-23,1.97525354969574,1.8287469
2023-06-24,1.97525354969574,1.863001
2023-06-25,1.97525354969574,1.8870794
2023-06-26,1.97606490872211,1.9035331
2023-06-27,2.012170385395537,1.9262697
2023-06-28,1.9565922920892493,1.9540645
2023-06-29,1.8616632860040578,1.945593
2023-06-30,2.000405679513184,1.8801404
2023-07-01,2.000405679513184,1.9150068
2023-07-02,2.000405679513184,1.9335328
2023-07-03,1.988235294117647,1.9422694
2023-07-04,2.0377281947261654,1.9408475
2023-07-05,2.2373225152129823,1.9557048
2023-07-06,2.2543610547667345,2.079075
2023-07-07,2.2592292089249497,2.1612113
2023-07-08,2.2592292089249497,2.2054942
2023-07-09,2.2592292089249497,2.2126849
2023-07-10,2.194320486815416,2.2052891
2023-07-11,2.3922920892494925,2.1522677
2023-07-12,2.3922920892494925,2.2190573
2023-07-13,2.3119675456389466,2.2599032
2023-07-14,2.2770791075050703,2.243477
2023-07-15,2.2770791075050703,2.224213
2023-07-16,2.2770791075050703,2.212209
2023-07-17,2.398782961460446,2.204552
2023-07-18,2.4109533468559814,2.2383997
2023-07-19,2.46450304259635,2.273451
2023-07-20,2.2665314401622716,2.3251956
2023-07-21,2.5472616632860063,2.246465
2023-07-22,2.5472616632860063,2.3309786
2023-07-23,2.5472616632860063,2.387665
2023-07-24,2.622718052738337,2.4234107
2023-07-25,2.3760649087221086,2.4992106
2023-07-26,2.345233265720081,2.4093268
2023-07-27,2.2949290060851926,2.3365881
2023-07-28,2.354158215010143,2.2628586
2023-07-29,2.354158215010143,2.2513773
2023-07-30,2.354158215010143,2.2539036
2023-07-31,2.304665314401623,2.2609456
2023-08-01,2.222718052738337,2.2413094
2023-08-02,2.1472616632860024,2.1854842
2023-08-03,2.1334685598377288,2.1274216
2023-08-04,2.1148073022312364,2.0968068
2023-08-05,2.1148073022312364,2.071418
2023-08-06,2.1148073022312364,2.061784
2023-08-07,2.093711967545639,2.0596335
2023-08-08,2.0223123732251516,2.0388548
2023-08-09,1.9663286004056797,1.9995185
2023-08-10,1.8600405679513177,1.9535571
2023-08-11,1.870588235294118,1.8880979
2023-08-12,1.870588235294118,1.8605062
2023-08-13,1.870588235294118,1.850258
2023-08-14,1.9233265720081132,1.8491021
2023-08-15,1.947667342799189,1.8979017
2023-08-16,2.1269776876267734,1.9244643
2023-08-17,2.1188640973630815,2.0473711
2023-08-18,2.060446247464503,2.0867808
2023-08-19,2.060446247464503,2.064586
2023-08-20,2.060446247464503,2.0405695
2023-08-21,2.1164300202839748,2.0210726
2023-08-22,2.264908722109533,2.0341618
2023-08-23,2.329006085192697,2.1186469
2023-08-24,2.2713995943204868,2.1951945
2023-08-25,2.2811359026369153,2.199114
2023-08-26,2.2811359026369153,2.1915095
2023-08-27,2.277484787018256,2.193209
2023-08-28,2.2498985801217035,2.1959393
2023-08-29,2.1634888438133864,2.1835825
2023-08-30,2.0953346855983774,2.1320746
2023-08-31,2.081541582150102,2.076256
2023-09-01,2.0831643002028404,2.0344403
2023-09-02,2.0831643002028404,2.0220778
2023-09-03,2.0831643002028404,2.0248206
2023-09-04,2.1196754563894533,2.032529
2023-09-05,2.0215010141987815,2.0677226
2023-09-06,2.000405679513184,2.0404189
2023-09-07,2.002839756592291,2.005626
2023-09-08,2.1115618661257614,1.9828416
2023-09-09,2.1115618661257614,2.0432293
2023-09-10,2.1115618661257614,2.0700486
2023-09-11,2.1699797160243417,2.0778525
2023-09-12,2.1724137931034484,2.1085045
2023-09-13,2.2811359026369153,2.1344178
2023-09-14,2.0580121703853944,2.1773398
2023-09-15,2.1066937119675444,2.0894997
2023-09-16,2.1066937119675444,2.0586188
2023-09-17,2.1066937119675444,2.0423872
2023-09-18,2.0336713995943203,2.0358098
2023-09-19,1.897363083164299,1.9876281
2023-09-20,1.662880324543611,1.9143811
2023-09-21,1.5630831643002008,1.7580262
2023-09-22,1.4616632860040557,1.6310683
2023-09-23,1.4616632860040557,1.517007
2023-09-24,1.4616632860040557,1.4714872
2023-09-25,1.3083164300202839,1.4606277
2023-09-26,1.2620689655172406,1.3747178
2023-09-27,1.2077079107505053,1.3213798
2023-09-28,1.1833671399594312,1.2665721
2023-09-29,1.2920892494929,1.2295686
2023-09-30,1.2920892494929,1.2817641
2023-10-01,1.2920892494929,1.3082277
2023-10-02,1.4470588235294102,1.3192168
2023-10-03,1.53630831643002,1.3953153
2023-10-04,1.63367139959432,1.4781877
2023-10-05,1.5987829614604454,1.5678807
2023-10-06,2.07342799188641,1.5934802
2023-10-07,2.07342799188641,1.8489352
2023-10-08,2.07342799188641,1.9731494
2023-10-09,2.0150101419878297,2.0217059
2023-10-10,2.0263691683569984,2.0008376
2023-10-11,2.2908722109533457,1.9988147
2023-10-12,2.389858012170384,2.1086934
2023-10-13,2.5026369168356997,2.2171204
2023-10-14,2.5026369168356997,2.345219
2023-10-15,2.5026369168356997,2.4001982
2023-10-16,2.3711967545638952,2.415602
2023-10-17,2.3598377281947247,2.3404238
